*** Darwin 9x6 ***
Turn = 0.
  012345
0 tfhhrf
1 thhrtr
2 rhrtht
3 frthtt
4 hhhhht
5 hhffrt
6 rhfrhr
7 ttffth
8 ttthfh

*** Darwin 16x23 ***
Turn = 0.
  01234567890123456789012
0 ........rrt..fh.th..h.t
1 h.f...r.h..t.hf...r..hr
2 ...h..fft.f....r.r.ft..
3 ..ff.r..f..tfr....h.hr.
4 htth...t....th.t.r..r..
5 htff....h.t..ff..ht....
6 .h..h....ht.ftr...t.h..
7 ..rf....th.ftttth..h.ht
8 .f.ff.rft.h..f.........
9 ..rt.f...rhtt......hh.f
0 rrrh.h...f..fth..hfhrht
1 ff.h.r.r.h...tf..tthrf.
2 ttht.......r.thhtfr...f
3 rt....ftt.f..f.htf.rff.
4 .....r.....rh..r.h.ff..
5 .h..f....th...hfft.r...

*** Darwin 23x4 ***
Turn = 0.
  0123
0 ....
1 ....
2 ..r.
3 ...r
4 ....
5 h...
6 ....
7 ....
8 ...r
9 ....
0 ..t.
1 ....
2 f..f
3 ....
4 .h..
5 h...
6 ....
7 r...
8 ...h
9 ..h.
0 ....
1 ....
2 ....

Turn = 5.
  0123
0 ...r
1 ....
2 ....
3 ...r
4 r...
5 ....
6 ....
7 ....
8 ....
9 ....
0 h.t.
1 ....
2 f..f
3 ....
4 h...
5 ...h
6 ....
7 ....
8 h...
9 ...h
0 ....
1 ....
2 r...

Turn = 10.
  0123
0 ...r
1 r...
2 ....
3 ....
4 ....
5 ....
6 ....
7 ....
8 ....
9 r...
0 ..t.
1 h...
2 f..f
3 ....
4 h...
5 ...h
6 ....
7 ....
8 h...
9 ...h
0 ....
1 r...
2 ....

Turn = 15.
  0123
0 ....
1 rr..
2 ....
3 ....
4 ....
5 ....
6 ....
7 ....
8 ....
9 ....
0 ..t.
1 r...
2 .r.f
3 .r..
4 .r..
5 ...h
6 ....
7 ....
8 r...
9 .r.h
0 ....
1 ....
2 ....

Turn = 20.
  0123
0 ....
1 ....
2 ....
3 ....
4 ....
5 ....
6 rr..
7 ....
8 ....
9 ....
0 ..t.
1 ....
2 .r..
3 ...r
4 ..rr
5 ...r
6 r..r
7 ..r.
8 ....
9 ....
0 ....
1 ....
2 r...

Turn = 25.
  0123
0 ....
1 ....
2 ....
3 ....
4 ....
5 ....
6 ....
7 ....
8 ....
9 ....
0 r.t.
1 rr..
2 ....
3 r...
4 ..rr
5 r...
6 ....
7 ...r
8 ....
9 ...r
0 ....
1 r...
2 r...

Turn = 30.
  0123
0 ....
1 ....
2 ....
3 ....
4 ....
5 ....
6 r...
7 ....
8 ....
9 ...r
0 ..r.
1 ..r.
2 ...r
3 ....
4 ....
5 ....
6 rr..
7 ....
8 ....
9 r...
0 r...
1 ...r
2 ..rr

Turn = 35.
  0123
0 ....
1 r...
2 ....
3 ....
4 ...r
5 ....
6 ....
7 ....
8 ....
9 ....
0 .r..
1 ....
2 ....
3 r...
4 ....
5 ....
6 ...r
7 ....
8 ....
9 ..rr
0 r...
1 rr..
2 rr..

Turn = 40.
  0123
0 ..rr
1 ....
2 ....
3 ....
4 ....
5 ....
6 ....
7 ....
8 ...r
9 ....
0 ....
1 ....
2 ....
3 ....
4 ..r.
5 ...r
6 ....
7 r...
8 rr..
9 r..r
0 ...r
1 ....
2 ...r

Turn = 45.
  0123
0 ....
1 ....
2 ...r
3 ...r
4 ....
5 ..r.
6 ....
7 ....
8 ....
9 ..r.
0 ...r
1 ....
2 ....
3 rr..
4 ...r
5 r..r
6 ....
7 ...r
8 ....
9 ....
0 ....
1 ....
2 r...

*** Darwin 4x5 ***
Turn = 0.
  01234
0 tfht.
1 t.ftf
2 rh.fh
3 hfrt.

Turn = 9.
  01234
0 trtt.
1 trttt
2 ttttt
3 .r.t.

Turn = 18.
  01234
0 tttt.
1 ttttt
2 ttttt
3 .t.t.

Turn = 27.
  01234
0 tttt.
1 ttttt
2 ttttt
3 .t.t.

Turn = 36.
  01234
0 tttt.
1 ttttt
2 ttttt
3 .t.t.

Turn = 45.
  01234
0 tttt.
1 ttttt
2 ttttt
3 .t.t.

Turn = 54.
  01234
0 tttt.
1 ttttt
2 ttttt
3 .t.t.

Turn = 63.
  01234
0 tttt.
1 ttttt
2 ttttt
3 .t.t.

Turn = 72.
  01234
0 tttt.
1 ttttt
2 ttttt
3 .t.t.

*** Darwin 12x16 ***
Turn = 0.
  0123456789012345
0 .r..h.f...r.....
1 .....rtfrhh.f.rf
2 .tr.hf.th..r...h
3 f....hr.r.h..fr.
4 ..h.t.hhf..f..r.
5 trf..r..f.r..h.r
6 .rf..th.....r...
7 ...h...tr..r....
8 .tf.hfr.f.h.rt..
9 ..rh.rhh...h.tft
0 ....h..ff.ffh..r
1 ...hf..t..rr.rf.

Turn = 10.
  0123456789012345
0 r..rr....rrrrrr.
1 r...rrrrrrr..rr.
2 ....r.r..rr....r
3 f..rrr...r...fr.
4 rtrr.r........rr
5 rtr..rr..r.....r
6 r...r.rr....r..r
7 r.r..rr......r..
8 .....r.rr.....r.
9 rr....rrr..rrr.t
0 rr......r..r.rr.
1 ...hf.ttttr...rr

Turn = 20.
  0123456789012345
0 rrrr...rr.rr..r.
1 r..r.r....r.r...
2 ........rrrrrrr.
3 rrr...........rr
4 .rrr.r.r..r..rr.
5 rrrrrrr..r......
6 rrrr..r.r...r.r.
7 rr..rr...r......
8 .r...rr.rr...r.r
9 ..r.r.rr........
0 ...rrrrrrr..rr..
1 ..r...rrttttrr..

Turn = 30.
  0123456789012345
0 rrrr....rrrrr.r.
1 rrrr..r.rr.r.r..
2 rr..r....r......
3 ...rr........r..
4 rr....r.r.......
5 rrrr.rr....rrrr.
6 ...r.....rr....r
7 r..rr..r..rr...r
8 r.rrr..r....r.rr
9 rrrrr...r.r.r...
0 rrr..r...rrrr...
1 .rr..r..rrrrr..r

Turn = 40.
  0123456789012345
0 r.rrrrrrrrr.....
1 r..rrr....r...r.
2 .r..rrr......rr.
3 rr.....rr.......
4 rr.rr.rr....r...
5 r..rrr...rrr..r.
6 r....r...rrrrr..
7 r....r..r..r....
8 rrr..r..r.rr..rr
9 r.r..r..r.rr.r.r
0 .r.......r.r..rr
1 rrr....r.rr.rrrr

Turn = 50.
  0123456789012345
0 r.rrrrr..r....rr
1 rr..r..rr.r.rrrr
2 rrrr.rrr.rrr.r..
3 rr.r.r..r.rr.r.r
4 r...rr....r...r.
5 r...r....rr....r
6 .rrr..rr..r...rr
7 ..r..r...r..rr..
8 ..r...rrrr..rr..
9 ...r.r.rr.r.....
0 ......r......r..
1 r.rr..rrrrr.....

Turn = 60.
  0123456789012345
0 .rrrr..r.rr.rr..
1 ..rr.rr.rrrrrrr.
2 r.r.rr....r.....
3 ..rrrrrrrr.r.r.r
4 r.r.rrrrr...r..r
5 rr.rr...r....r.r
6 ...r.rr..r..r.r.
7 rr..rr..r...r...
8 r......r...r....
9 .rr....r..r...r.
0 r....r....rr.rr.
1 ...r.r.r..rrr...

Turn = 70.
  0123456789012345
0 r..rrrrrrrr.r...
1 ..r.rrrr.rr..r.r
2 rrrr....rr......
3 rr.r.rr.rr.r....
4 rr....rr..rrrr..
5 rr...rr.........
6 r.rr.r....r.....
7 ....r..rr.....rr
8 ..rr.....r.r....
9 rr..r.........r.
0 rrr.r..rrr..rr.r
1 rr.rr..r..rrrrrr

Turn = 80.
  0123456789012345
0 rrr..rr...r...rr
1 rrr...rrr....rr.
2 rr....r.rr.r..rr
3 rrr..r.r..rr..r.
4 r.r.r...r.rr..rr
5 rr.r.r........rr
6 ..r...r..rr....r
7 rr.r...rr.r.r...
8 rr.r....rrrr....
9 rrrrr.r..r.r....
0 rrrr............
1 rrrr..r......r.r

Turn = 90.
  0123456789012345
0 .rrr.rrr..r.r...
1 r...rrrrr.r.....
2 rr..r.rrr.r.r.r.
3 r.r...rrrrr...r.
4 rr.rr.rr..r....r
5 r....rr.....r...
6 rrrr...r........
7 .rr.rr..........
8 rr.rr..rrr...r.r
9 r.r.r.r.r.......
0 .r.r..rrrr......
1 rrr...rrrrr..rrr

*** Darwin 4x2 ***
Turn = 0.
  01
0 rf
1 hh
2 hf
3 th

Turn = 10.
  01
0 rr
1 rt
2 rt
3 tt

Turn = 20.
  01
0 tr
1 rr
2 tt
3 tt

Turn = 30.
  01
0 tr
1 rr
2 tt
3 tt

Turn = 40.
  01
0 tr
1 rr
2 tt
3 tt

*** Darwin 21x11 ***
Turn = 0.
  01234567890
0 t..ff......
1 rr.ffr.f.hf
2 h......hft.
3 .t.t.t.trh.
4 ..r.hrt...r
5 h..ht...h.f
6 ......r..t.
7 rht....r...
8 t.fth.fr..f
9 fr....rf.f.
0 ..r.tr.....
1 .....f..t.t
2 ..ht..tf.ff
3 rf..h.....r
4 fhf..r.....
5 ..t.r.hr..h
6 fht.hft..h.
7 h.hh..r.tt.
8 f....h.r.r.
9 .f..h..hfr.
0 ..t...ttrrf

Turn = 9.
  01234567890
0 rr.....rrr.
1 .rr.f..t..f
2 .r.....tt..
3 rttt.r.ttt.
4 .r..htt.t..
5 rrhhtt....f
6 rr..tt...t.
7 ..t..t.....
8 ..tttt....f
9 ....t......
0 .r...r..t.r
1 ....r.t.ttr
2 r...h.ttrtt
3 t......rrtt
4 ttt.r......
5 .tt...t....
6 f.tt.ttt...
7 h.tt..ttttt
8 f.........t
9 .ttr.trt..t
0 ..t.rttt...

Turn = 18.
  01234567890
0 ...r.......
1 ...r..rt...
2 ..rr.r.ttt.
3 ..rrrr.tt.r
4 rr.rr..rtrt
5 r.r.r....tt
6 rr..rr..r..
7 rr.r...r.r.
8 r.rrtt....f
9 ...tt......
0 r...t.t...r
1 .r....tr.rr
2 ......ttttt
3 rr.....rttt
4 r.t.......t
5 .tt...t....
6 f.tt.ttt...
7 h.tt..ttttt
8 f.........t
9 .ttt.ttt..t
0 ..tt.ttt...

Turn = 27.
  01234567890
0 .....rrt...
1 r....r.t...
2 rrr..r.ttt.
3 rr.....rtt.
4 rr...rtrtrt
5 rr.....r.r.
6 rrr........
7 r.r.......r
8 rrr.ttrr..r
9 .r.rt..tr.r
0 ...tt.ttr..
1 ......t.t..
2 ......ttt..
3 .......ttrr
4 ttt.r......
5 ttt...t....
6 t.tt.ttttt.
7 t.tt..ttt.t
8 t.........t
9 .ttt.ttt..t
0 ..tt.ttt.r.

Turn = 36.
  01234567890
0 r...rr.tr..
1 r...r..t...
2 ...rr.trrt.
3 .rr....rrtt
4 ........rrt
5 .r..r....tt
6 r..r.r.r..t
7 r..ttttt..t
8 ...rtttt...
9 r...tt.tt..
0 ....t..tt..
1 ......t.t..
2 rr....ttt..
3 rr.....tt..
4 r......r...
5 trrr..t..t.
6 t.r.rttttt.
7 t.rt..ttt.t
8 t.........t
9 .tttrttt..t
0 ..tt.tttt..

Turn = 45.
  01234567890
0 .r....ttr..
1 rrrr.rrr...
2 rr.r..t.rtt
3 r...r...ttt
4 .........tt
5 ...r.....tt
6 ..r..r.t..t
7 r...rttt..t
8 rr.rrtttt..
9 ....tt.rr..
0 ....t..rt.r
1 ......t.t..
2 r.....ttt..
3 .rr.r.ttt..
4 rr....t..t.
5 .......r.t.
6 .r...r...tr
7 ttr...rttr.
8 trr.......t
9 .r.ttttt..t
0 r.rtttttt..

Turn = 54.
  01234567890
0 rrrrr.rrr..
1 rr...rrr...
2 r.r.....ttt
3 .......rrrr
4 ..r.rr..rtt
5 ..rrr.rr.tt
6 ......r..tr
7 ...r...rt.r
8 ....rr..t.r
9 r..tt...t..
0 r...ttrr...
1 .......tt..
2 ..r...rtt..
3 ..r...rtt..
4 ......rt.t.
5 ..r......t.
6 rr...r..tt.
7 rr.r...ttt.
8 rr.rttt...t
9 rrr.trrr..t
0 ..r.tttrr..

Turn = 63.
  01234567890
0 .rrrr...rr.
1 .rr.r.rr.rt
2 rr.....rrrr
3 rr......rrt
4 ..r.r..rr.t
5 r.........t
6 rrr...r...t
7 rrr..r..r.t
8 .rr.r...t.t
9 ...rt..tt..
0 r..rtttt...
1 r.r....tt..
2 r.....ttt..
3 .rrr.rttt..
4 r.....tttt.
5 ......r..t.
6 ......r.tt.
7 r......ttt.
8 ...r....ttt
9 ...rrrrt..t
0 r..rrr.tt..

Turn = 72.
  01234567890
0 ..r...rrrrr
1 ...r.r....r
2 rrrrrrr....
3 .r.......r.
4 rr....rr..r
5 r.rr.rr..rr
6 .rrr...rrrr
7 r.r.....r.r
8 .rrr.r.rr..
9 rr.....t..r
0 ..rrrtrtr..
1 r...r.rtt.r
2 r.r...rr...
3 rr....rtt..
4 ....r..tttt
5 .r.r.....t.
6 .......ttt.
7 ........tt.
8 r.rr.rrtttt
9 .r.....t..t
0 ..r..rrr...

Turn = 81.
  01234567890
0 .rrr.....r.
1 .r........r
2 r..r.r..r.r
3 rrr...rr...
4 r..r.r.r..r
5 ...rr.r..r.
6 ..rr.......
7 .r.rr.rr...
8 ..r.r..r..r
9 rr.rrrtt.r.
0 rrr...ttr.r
1 rrr..rtrrrr
2 rr.r..rtt.r
3 r.....rr..t
4 r.rrrrr.ttt
5 .........t.
6 .......ttt.
7 ..r....rtt.
8 r......tttt
9 r.r...tt..t
0 rr....t...t

Turn = 90.
  01234567890
0 rr.rrrrr...
1 ...r..r....
2 .....r....r
3 r.r.r.r.rr.
4 rrr..r.....
5 .......r..r
6 rrrr...r..r
7 r.....r....
8 rr..rrrr...
9 r.rrrtrt.r.
0 ..r..ttttt.
1 rr...tttttr
2 ....r.ttt.r
3 r...rtr.t.t
4 rr....r.ttt
5 .........t.
6 r......ttt.
7 .r.r...ttt.
8 .rr.r..tttt
9 r...r.t...t
0 ...rrtt...t

*** Darwin 19x19 ***
Turn = 0.
  0123456789012345678
0 fr....r.....t......
1 f...f............t.
2 ...f......f........
3 ............h......
4 .....t.............
5 .f.....r.f..r......
6 .................t.
7 ...............h...
8 .t..........t......
9 ..........f....h.f.
0 ......f...r..f.....
1 .......t..........t
2 .........t......t..
3 ....r.........r....
4 ...........t.......
5 ........tr.........
6 ....t.....r........
7 ..........f.tt.hr..
8 ........f.f....f...

Turn = 6.
  0123456789012345678
0 f......r...r.r.....
1 f...f......r.....t.
2 ...f......r........
3 ..........r........
4 .....t.............
5 .f.................
6 .................t.
7 ....r....r..t....t.
8 .t....r.....t......
9 ..........f......f.
0 .......t.....f.....
1 .......t..........t
2 .........t.....tt..
3 ........r..........
4 ...........t.......
5 ........t......r...
6 ....t...........r..
7 ..........f.ttt....
8 ........f.f....f.r.

Turn = 12.
  0123456789012345678
0 f..........r.r...tr
1 f...r............t.
2 ...frr.............
3 .....r.............
4 .....tt............
5 .f.................
6 .................t.
7 ............t....t.
8 .t..........t......
9 ..........f......f.
0 .......t.....f.....
1 .......t..........t
2 .........r.....tt..
3 ..r...............r
4 .........r.t.......
5 ........t..........
6 ....t..............
7 ..........f.ttt....
8 ........f.f..tt...r

Turn = 18.
  0123456789012345678
0 rr.rr...........ttt
1 rr.............r.t.
2 ...................
3 r..................
4 .....tt............
5 .f.................
6 .................t.
7 ............t....t.
8 .t..........t......
9 ..........f......f.
0 .......t.....f.....
1 .......t..........t
2 ...............tt.t
3 ..................r
4 ...........t.......
5 ........tt.........
6 r...t..............
7 ..........f.ttt....
8 ........rrf..tt....

Turn = 24.
  0123456789012345678
0 r..r.r....r.....ttt
1 r................t.
2 ...................
3 ...................
4 .....tt............
5 .f.r...............
6 .................t.
7 ............t..r.t.
8 .t..........t......
9 r.........f......f.
0 .......t.....f.....
1 .......t..........t
2 ...............ttt.
3 ...............t...
4 ...........t.......
5 ........rr.........
6 ....t..r..r........
7 ..........f.ttt....
8 ...r......f..tt....

Turn = 30.
  0123456789012345678
0 r........r.r...rrtt
1 .................t.
2 ...................
3 ...................
4 .....tt............
5 .f.................
6 .................t.
7 r...........t....t.
8 .t..........t......
9 .........rf......f.
0 .......t.....f.....
1 ...r...t.......r..t
2 ................tt.
3 ...............r...
4 ...........t.......
5 r..............r...
6 ..r..........t.....
7 .......r..f.ttt....
8 ....r..r..f..tt....

Turn = 36.
  0123456789012345678
0 ......r........r.rt
1 ...................
2 ...................
3 .........r.........
4 .....tt.........rr.
5 .f.............r.r.
6 .................r.
7 ............t....r.
8 .t..........t......
9 ..........f......f.
0 .......t.....f.....
1 .......r..........t
2 .......r........tt.
3 r..................
4 .....rr....t.......
5 ...................
6 .............t.r...
7 r..r......f.ttt.r..
8 ..r.......f..ttt...

Turn = 42.
  0123456789012345678
0 ............r.r....
1 ............r.....r
2 ..................r
3 ..................r
4 .....tt.........r..
5 .f.................
6 ..................r
7 ............t......
8 .t...r......t......
9 ..........f......fr
0 ...........r.f.....
1 ...r...........rr.t
2 ..r.............tt.
3 ..r................
4 ...........t.......
5 ..r................
6 ....r........t.....
7 r.........f.tttt...
8 .......r..f..ttt..r

Turn = 48.
  0123456789012345678
0 ................r.r
1 ................r..
2 ................r.r
3 .....r......r......
4 ...r..t...........r
5 .f...........r.....
6 ...................
7 ............t......
8 .t..........t......
9 ..r.......f.....rf.
0 ...............rr..
1 r..................
2 ..r..............t.
3 ..r................
4 ...........t.......
5 ..................r
6 ..........r..t.rr..
7 ........r.r.ttttr..
8 ..r.....r....tttt..

Turn = 54.
  0123456789012345678
0 ...r.........r....r
1 ..........r.......r
2 ................r..
3 ..r...r............
4 ......t............
5 rf.................
6 r................r.
7 ............t......
8 .t..........t...r..
9 ..........f........
0 ..................r
1 ...................
2 ........r.......rtt
3 ........r.......r..
4 ...........t.......
5 ...............r...
6 ............tt.r...
7 ..r.r.r.....ttttt..
8 .....r.......tttt.r

Turn = 60.
  0123456789012345678
0 rr...............rr
1 ....r..............
2 r.........r........
3 r..............rr..
4 ......t............
5 ...................
6 ......r............
7 ............t......
8 .t..........t....r.
9 r.........f.......r
0 ...................
1 ......r.......rr...
2 .....r........r....
3 ..............r....
4 r..........t......r
5 ................r.r
6 ............tt..t..
7 ............ttttt..
8 r............ttttt.

*** Darwin 25x17 ***
Turn = 0.
  01234567890123456
0 ...f.....frr.t.t.
1 ....tr.f...hr..h.
2 ...hhr..h..r..f..
3 f.rt..f.t...r.t..
4 tt..ft...t...ht..
5 t...h.r.ft.......
6 h.f.h...rthhr.ff.
7 ..f..f.r.h..rtrhr
8 ...hf.f....rfrt..
9 rh.h...hr.h..t.r.
0 ..r.h...ff...tttr
1 ..hhtrrh...r....r
2 r..hr.t.r.rr..frr
3 .hr..f.tr...t..r.
4 fhffth.ffh.f..rf.
5 .fhrtt.tr..t..rft
6 .tf..hrf.h...h..t
7 ....rrt.....h.hf.
8 f.....f..f.......
9 f........r.f.....
0 r..rt...f.f.th...
1 f.ffhf.rh.t...rrt
2 ...fh....t...rf..
3 .tthhh....fft...t
4 ..tt.t..hrfr...t.

Turn = 7.
  01234567890123456
0 ...f.....fr.r.r.r
1 ..r....fhr.......
2 .....r.rrrrrr..r.
3 t..t.rr.t...rr.r.
4 tttttt...rr.rrr..
5 t...t...tr.r.r.r.
6 r..rrr...ttr...r.
7 ...rrr...t......r
8 r..rr.rr..r.ftt..
9 .....rr..r...ttt.
0 r..tt.t..r..rrrr.
1 ...tt.t......r.r.
2 ...tt.t.r..tt....
3 .t...tttrtttttrrr
4 rttttt.t.ttt..r.r
5 .ttttt.tt..t..rrr
6 tttt.t.tr.r...r.r
7 t....tt...r....f.
8 t...r...h........
9 trr...r....f.....
0 .....rr..ttr.....
1 r....rr..ttr...r.
2 r.tt.....t..r.f.r
3 .trtt.r..tt.rr..t
4 .rrrrr....t....t.

Turn = 14.
  01234567890123456
0 ...rrrrrrrr...r.r
1 r.rr..r.r...r....
2 ......rr.....r...
3 t..t..r..rr.r....
4 tttttrr......rrr.
5 trr.r.rrr.trr....
6 t.....rrr.tr...r.
7 rr.....r.tt.r....
8 trr..r..r...ttttr
9 ..r.r........tr.r
0 ...rr.r..r..ttr..
1 ...trr......t.r.r
2 ...ttrt..t.rrt...
3 .t...rtt.ttrrt...
4 rrtttr.ttttt..tt.
5 rttttt.tt..t..tt.
6 tttttt.ttt.....t.
7 t..r.trt.t.....t.
8 t....tr..........
9 ttr........t.....
0 .tr.r...tttt.....
1 .........ttt..rrr
2 ..rtt....tt...f.r
3 .trtt....tt..r...
4 .tttt....tttt..r.

Turn = 21.
  01234567890123456
0 rrrrr..rr.rr.rr..
1 rrr....r.r..rr.rr
2 r...rr.r..r..r..r
3 r.ttrrr...rr.....
4 .rr.rrr...r.....r
5 trrr.rr..........
6 t...r.r..rt......
7 tt....r..rrrr....
8 .t..r......r.rr..
9 rr.r.r......rrr..
0 .rr.........rr...
1 ...........rrrr..
2 r.rtttt..tr.rr.rr
3 .rrrrttt.ttttt...
4 .t.rrt.ttttt..tt.
5 tttttt.tt..t..tt.
6 t.ttttt.tt.....tt
7 t..t.ttt.t.....tt
8 tr.............t.
9 ttt...r....t...r.
0 ......rttttt.....
1 ....r.r..ttt.....
2 r..r.....ttrr....
3 .rtttt...ttr.....
4 .tttt....ttrrr...

*** Darwin 7x12 ***
Turn = 0.
  012345678901
0 ttrttrthtfft
1 htrrfhfhtttr
2 hhrtfrhrtfth
3 ffffhrrtrhrf
4 hthtrhtrrfhf
5 rrrfhfrtttfr
6 frrftthfhfrt

Turn = 9.
  012345678901
0 tttttttttttt
1 tttttttttttt
2 ttttttrttttt
3 tttttttttttt
4 ttrtrtttrttt
5 rrrrrttrrtrr
6 trrrtttrrrrr

Turn = 18.
  012345678901
0 tttttttttttt
1 tttttttttttt
2 tttttttttttt
3 tttttttttttt
4 tttttttttttt
5 tttttttttttt
6 tttttttttttt

Turn = 27.
  012345678901
0 tttttttttttt
1 tttttttttttt
2 tttttttttttt
3 tttttttttttt
4 tttttttttttt
5 tttttttttttt
6 tttttttttttt

Turn = 36.
  012345678901
0 tttttttttttt
1 tttttttttttt
2 tttttttttttt
3 tttttttttttt
4 tttttttttttt
5 tttttttttttt
6 tttttttttttt

Turn = 45.
  012345678901
0 tttttttttttt
1 tttttttttttt
2 tttttttttttt
3 tttttttttttt
4 tttttttttttt
5 tttttttttttt
6 tttttttttttt

Turn = 54.
  012345678901
0 tttttttttttt
1 tttttttttttt
2 tttttttttttt
3 tttttttttttt
4 tttttttttttt
5 tttttttttttt
6 tttttttttttt

Turn = 63.
  012345678901
0 tttttttttttt
1 tttttttttttt
2 tttttttttttt
3 tttttttttttt
4 tttttttttttt
5 tttttttttttt
6 tttttttttttt

Turn = 72.
  012345678901
0 tttttttttttt
1 tttttttttttt
2 tttttttttttt
3 tttttttttttt
4 tttttttttttt
5 tttttttttttt
6 tttttttttttt

Turn = 81.
  012345678901
0 tttttttttttt
1 tttttttttttt
2 tttttttttttt
3 tttttttttttt
4 tttttttttttt
5 tttttttttttt
6 tttttttttttt

Turn = 90.
  012345678901
0 tttttttttttt
1 tttttttttttt
2 tttttttttttt
3 tttttttttttt
4 tttttttttttt
5 tttttttttttt
6 tttttttttttt

*** Darwin 4x27 ***
Turn = 0.
  012345678901234567890123456
0 hrrhthfhfrtrtrhftthrftfthff
1 ththtfrfhtrfrrhtrthtrrtrfrr
2 tfhffttfhhfrthhrffrffrhthhh
3 ttthrrfttfhfftftftrfhftfrrr

Turn = 5.
  012345678901234567890123456
0 tttrtttttttrrrtttrttttrrhrf
1 tttrtttttttrtrttttttttrttrr
2 tttttttttttttttttttttrttttt
3 tttttttttttttttttttfrrttttt

Turn = 10.
  012345678901234567890123456
0 tttttttttttttttttttttttrrrr
1 tttttttttttttttttttttttttrr
2 ttttttttttttttttttttttttttr
3 ttttttttttttttttttttttttttt

Turn = 15.
  012345678901234567890123456
0 ttttttttttttttttttttttttttt
1 ttttttttttttttttttttttttttt
2 ttttttttttttttttttttttttttt
3 ttttttttttttttttttttttttttt

Turn = 20.
  012345678901234567890123456
0 ttttttttttttttttttttttttttt
1 ttttttttttttttttttttttttttt
2 ttttttttttttttttttttttttttt
3 ttttttttttttttttttttttttttt

Turn = 25.
  012345678901234567890123456
0 ttttttttttttttttttttttttttt
1 ttttttttttttttttttttttttttt
2 ttttttttttttttttttttttttttt
3 ttttttttttttttttttttttttttt

Turn = 30.
  012345678901234567890123456
0 ttttttttttttttttttttttttttt
1 ttttttttttttttttttttttttttt
2 ttttttttttttttttttttttttttt
3 ttttttttttttttttttttttttttt

Turn = 35.
  012345678901234567890123456
0 ttttttttttttttttttttttttttt
1 ttttttttttttttttttttttttttt
2 ttttttttttttttttttttttttttt
3 ttttttttttttttttttttttttttt

*** Darwin 14x7 ***
Turn = 0.
  0123456
0 rrfrrht
1 trhhtrt
2 rthrhrh
3 rfhttht
4 rthhtrh
5 hrhrhft
6 thrttfh
7 hrthrft
8 h.hhrff
9 htrhhrf
0 hftffhh
1 frtthfr
2 hhttrrr
3 trtthhr
